{
    "AAS_Body": {
        "AAS_SubModels_array": [
            {
                "AAS_IDSpect": "https://smg.org/AAS/Temperature",
                "AAS_IDType": "URI",
                "AAS_Revision": "16",
                "AAS_SamplingTime": "2",
                "AAS_StatExpLogic": "EQUAL",
                "AAS_StatExpSem": "REQUIREMENT",
                "AAS_StatName": "Temperature",
                "AAS_StatVal": "String",
                "AAS_StatView": "FUNCTIONAL",
                "AAS_StatVisib": "PUBLIC",
                "AAS_Version": "1"
            },
            {
                "AAS_IDSpect": "https://smg.org/AAS/Pressure",
                "AAS_IDType": "URI",
                "AAS_Revision": "3",
                "AAS_SamplingTime": "2",
                "AAS_StatExpLogic": "EQUAL",
                "AAS_StatExpSem": "REQUIREMENT",
                "AAS_StatName": "Pressure",
                "AAS_StatVal": "String",
                "AAS_StatView": "FUNCTIONAL",
                "AAS_StatVisib": "PUBLIC",
                "AAS_Version": "1"
            }
        ],
        "AAS_SubmodelName": "Operation"
    },
    "AAS_ContainerID": 100,
    "AAS_ContainerName": "Machine1",
    "AAS_Header": {
        "AAS_HeaderName": "Properties",
        "AAS_IDSpect": "https://smg.org/AAS/AS_ManualStation",
        "AAS_IDType": "URI",
        "AAS_PropValStatCont": [
            {
                "AAS_IDSpect": "https://smg.org/AAS/Machine Name",
                "AAS_IDType": "URI",
                "AAS_Revision": "14",
                "AAS_SamplingTime": "NA",
                "AAS_StatExpLogic": "EQUAL",
                "AAS_StatExpSem": "REQUIREMENT",
                "AAS_StatName": "Machine Name",
                "AAS_StatVal": "String",
                "AAS_StatView": "FUNCTIONAL",
                "AAS_StatVisib": "PUBLIC",
                "AAS_Version": "1"
            }
        ]
    }
}